˙ㄅㄚ	ba			
˙ㄅㄛ	bo			
˙ㄅㄞ	bai			
˙ㄅㄟ	bei			
˙ㄆㄚ	pa			
˙ㄇㄚ	ma			
˙ㄇㄛ	mo			
˙ㄇㄜ	me			
˙ㄇㄣ	men			
˙ㄉㄚ	da			
˙ㄉㄜ	de			
˙ㄉㄧㄥ	ding			
˙ㄉㄨㄛ	duo			
˙ㄊㄞ	tai			
˙ㄊㄠ	tao			
˙ㄊㄡ	tou			
˙ㄋㄚ	na			
˙ㄋㄜ	ne			
˙ㄋㄤ	nang			
˙ㄌㄚ	la			
˙ㄌㄛ	lo			
˙ㄌㄜ	le			
˙ㄌㄟ	lei			
˙ㄌㄡ	lou			
˙ㄌㄧ	li			
˙ㄌㄧㄡ	liu			
˙ㄌㄨ	lu			
˙ㄌㄨㄛ	luo			
˙ㄍㄚ	ga			
˙ㄍㄜ	ge			
˙ㄍㄨㄛ	guo			
˙ㄏㄥ	heng			
˙ㄏㄨㄚ	hua			
˙ㄏㄨㄛ	huo			
˙ㄏㄨㄞ	huai			
˙ㄏㄨㄤ	huang			
˙ㄐㄧㄝ	jie			
˙ㄓㄜ	zhe			
˙ㄔㄣ	chen			
˙ㄕ	shi			
˙ㄕㄚ	sha			
˙ㄕㄤ	shang			
˙ㄗ	zi			
˙ㄗㄨㄛ	zuo			
˙ㄙㄚ	sa			
˙ㄚ	a			
˙ㄝ	ê			
˙ㄡ	ou			
˙ㄣ	en			
˙ㄦ	er			
˙ㄧㄚ	ya			
˙ㄧㄛ	yo			
˙ㄨㄚ	wa			
˙ㄨㄞ	wai			
ㄅㄚ	bā	ba	ba	pa
ㄅㄚˇ	bǎ			
ㄅㄚˊ	bá			
ㄅㄚˋ	bà			
ㄅㄛ	bō	bo	bwo	po
ㄅㄛˇ	bǒ			
ㄅㄛˊ	bó			
ㄅㄛˋ	bò			
ㄅㄞ	bāi	bai	bai	pai
ㄅㄞˇ	bǎi			
ㄅㄞˊ	bái			
ㄅㄞˋ	bài			
ㄅㄟ	bēi	bei	bei	pei
ㄅㄟˇ	běi			
ㄅㄟˋ	bèi			
ㄅㄠ	bāo	bau	bau	pao
ㄅㄠˇ	bǎo			
ㄅㄠˊ	báo			
ㄅㄠˋ	bào			
ㄅㄢ	bān	ban	ban	pan
ㄅㄢˇ	bǎn			
ㄅㄢˋ	bàn			
ㄅㄣ	bēn	ben	ben	pen
ㄅㄣˇ	běn			
ㄅㄣˊ	bén			
ㄅㄣˋ	bèn			
ㄅㄤ	bāng	bang	bang	pang
ㄅㄤˇ	bǎng			
ㄅㄤˋ	bàng			
ㄅㄥ	bēng	beng	beng	peng
ㄅㄥˇ	běng			
ㄅㄥˊ	béng			
ㄅㄥˋ	bèng			
ㄅㄧ	bī	bi	bi	pi
ㄅㄧˇ	bǐ			
ㄅㄧˊ	bí			
ㄅㄧˋ	bì			
ㄅㄧㄝ	biē	bie	bye	pieh
ㄅㄧㄝˇ	biě			
ㄅㄧㄝˊ	bié			
ㄅㄧㄝˋ	biè			
ㄅㄧㄠ	biāo	biau	byau	piao
ㄅㄧㄠˇ	biǎo			
ㄅㄧㄠˋ	biào			
ㄅㄧㄢ	biān	bian	byan	pien
ㄅㄧㄢˇ	biǎn			
ㄅㄧㄢˊ	bián			
ㄅㄧㄢˋ	biàn			
ㄅㄧㄣ	bīn	bin	bin	pin
ㄅㄧㄣˇ	bǐn			
ㄅㄧㄣˊ	bín			
ㄅㄧㄣˋ	bìn			
ㄅㄧㄥ	bīng	bing	bing	ping
ㄅㄧㄥˇ	bǐng			
ㄅㄧㄥˋ	bìng			
ㄅㄨ	bū	bu	bu	pu
ㄅㄨˇ	bǔ			
ㄅㄨˊ	bú			
ㄅㄨˋ	bù			
ㄆㄚ	pā	pa	pa	p'a
ㄆㄚˇ	pǎ			
ㄆㄚˊ	pá			
ㄆㄚˋ	pà			
ㄆㄛ	pō	po	pwo	p'o
ㄆㄛˇ	pǒ			
ㄆㄛˊ	pó			
ㄆㄛˋ	pò			
ㄆㄞ	pāi	pai	pai	p'ai
ㄆㄞˇ	pǎi			
ㄆㄞˊ	pái			
ㄆㄞˋ	pài			
ㄆㄟ	pēi	pei	pei	p'ei
ㄆㄟˇ	pěi			
ㄆㄟˊ	péi			
ㄆㄟˋ	pèi			
ㄆㄠ	pāo	pau	pau	p'ao
ㄆㄠˇ	pǎo			
ㄆㄠˊ	páo			
ㄆㄠˋ	pào			
ㄆㄡ	pōu	pou	pou	p'ou
ㄆㄡˇ	pǒu			
ㄆㄡˊ	póu			
ㄆㄡˋ	pòu			
ㄆㄢ	pān	pan	pan	p'an
ㄆㄢˇ	pǎn			
ㄆㄢˊ	pán			
ㄆㄢˋ	pàn			
ㄆㄣ	pēn	pen	pen	p'en
ㄆㄣˇ	pěn			
ㄆㄣˊ	pén			
ㄆㄣˋ	pèn			
ㄆㄤ	pāng	pang	pang	p'ang
ㄆㄤˇ	pǎng			
ㄆㄤˊ	páng			
ㄆㄤˋ	pàng			
ㄆㄥ	pēng	peng	peng	p'eng
ㄆㄥˇ	pěng			
ㄆㄥˊ	péng			
ㄆㄥˋ	pèng			
ㄆㄧ	pī	pi	pi	p'i
ㄆㄧˇ	pǐ			
ㄆㄧˊ	pí			
ㄆㄧˋ	pì			
ㄆㄧㄝ	piē	pie	pye	p'ieh
ㄆㄧㄝˇ	piě			
ㄆㄧㄝˋ	piè			
ㄆㄧㄠ	piāo	piau	pyau	p'iao
ㄆㄧㄠˇ	piǎo			
ㄆㄧㄠˊ	piáo			
ㄆㄧㄠˋ	piào			
ㄆㄧㄢ	piān	pian	pyan	p'ien
ㄆㄧㄢˇ	piǎn			
ㄆㄧㄢˊ	pián			
ㄆㄧㄢˋ	piàn			
ㄆㄧㄣ	pīn	pin	pin	p'in
ㄆㄧㄣˇ	pǐn			
ㄆㄧㄣˊ	pín			
ㄆㄧㄣˋ	pìn			
ㄆㄧㄥ	pīng	ping	ping	p'ing
ㄆㄧㄥˇ	pǐng			
ㄆㄧㄥˊ	píng			
ㄆㄧㄥˋ	pìng			
ㄆㄨ	pū	pu	pu	p'u
ㄆㄨˇ	pǔ			
ㄆㄨˊ	pú			
ㄆㄨˋ	pù			
ㄇㄚ	mā	ma	ma	ma
ㄇㄚˇ	mǎ			
ㄇㄚˊ	má			
ㄇㄚˋ	mà			
ㄇㄛ	mō	mo	mwo	mo
ㄇㄛˇ	mǒ			
ㄇㄛˊ	mó			
ㄇㄛˋ	mò			
ㄇㄜ	mē	me	me	me
ㄇㄜˋ	mè			
ㄇㄞ	māi	mai	mai	mai
ㄇㄞˇ	mǎi			
ㄇㄞˊ	mái			
ㄇㄞˋ	mài			
ㄇㄟ	mēi	mei	mei	mei
ㄇㄟˇ	měi			
ㄇㄟˊ	méi			
ㄇㄟˋ	mèi			
ㄇㄠ	māo	mau	mau	mao
ㄇㄠˇ	mǎo			
ㄇㄠˊ	máo			
ㄇㄠˋ	mào			
ㄇㄡ	mōu	mou	mou	mou
ㄇㄡˇ	mǒu			
ㄇㄡˊ	móu			
ㄇㄡˋ	mòu			
ㄇㄢ	mān	man	man	man
ㄇㄢˇ	mǎn			
ㄇㄢˊ	mán			
ㄇㄢˋ	màn			
ㄇㄣ	mēn	men	men	men
ㄇㄣˇ	měn			
ㄇㄣˊ	mén			
ㄇㄣˋ	mèn			
ㄇㄤ	māng	mang	mang	mang
ㄇㄤˇ	mǎng			
ㄇㄤˊ	máng			
ㄇㄤˋ	màng			
ㄇㄥ	mēng	meng	meng	meng
ㄇㄥˇ	měng			
ㄇㄥˊ	méng			
ㄇㄥˋ	mèng			
ㄇㄧ	mī	mi	mi	mi
ㄇㄧˇ	mǐ			
ㄇㄧˊ	mí			
ㄇㄧˋ	mì			
ㄇㄧㄝ	miē	mie	mye	mieh
ㄇㄧㄝˊ	mié			
ㄇㄧㄝˋ	miè			
ㄇㄧㄠ	miāo	miau	myau	miao
ㄇㄧㄠˇ	miǎo			
ㄇㄧㄠˊ	miáo			
ㄇㄧㄠˋ	miào			
ㄇㄧㄡ	miū	miou	myou	miu
ㄇㄧㄡˇ	miǔ			
ㄇㄧㄡˊ	miú			
ㄇㄧㄡˋ	miù			
ㄇㄧㄢ	miān	mian	myan	mien
ㄇㄧㄢˇ	miǎn			
ㄇㄧㄢˊ	mián			
ㄇㄧㄢˋ	miàn			
ㄇㄧㄣ	mīn	min	min	min
ㄇㄧㄣˇ	mǐn			
ㄇㄧㄣˊ	mín			
ㄇㄧㄥ	mīng	ming	ming	ming
ㄇㄧㄥˇ	mǐng			
ㄇㄧㄥˊ	míng			
ㄇㄧㄥˋ	mìng			
ㄇㄨ	mū	mu	mu	mu
ㄇㄨˇ	mǔ			
ㄇㄨˊ	mú			
ㄇㄨˋ	mù			
ㄈㄚ	fā	fa	fa	fa
ㄈㄚˇ	fǎ			
ㄈㄚˊ	fá			
ㄈㄚˋ	fà			
ㄈㄛ	fō	fo	fwo	fo
ㄈㄛˊ	fó			
ㄈㄟ	fēi	fei	fei	fei
ㄈㄟˇ	fěi			
ㄈㄟˊ	féi			
ㄈㄟˋ	fèi			
ㄈㄡ	fōu	fou	fou	fou
ㄈㄡˇ	fǒu			
ㄈㄡˊ	fóu			
ㄈㄡˋ	fòu			
ㄈㄢ	fān	fan	fan	fan
ㄈㄢˇ	fǎn			
ㄈㄢˊ	fán			
ㄈㄢˋ	fàn			
ㄈㄣ	fēn	fen	fen	fen
ㄈㄣˇ	fěn			
ㄈㄣˊ	fén			
ㄈㄣˋ	fèn			
ㄈㄤ	fāng	fang	fang	fang
ㄈㄤˇ	fǎng			
ㄈㄤˊ	fáng			
ㄈㄤˋ	fàng			
ㄈㄥ	fēng	feng	feng	feng
ㄈㄥˇ	fěng			
ㄈㄥˊ	féng			
ㄈㄥˋ	fèng			
ㄈㄨ	fū	fu	fu	fu
ㄈㄨˇ	fǔ			
ㄈㄨˊ	fú			
ㄈㄨˋ	fù			
ㄉㄚ	dā	da	da	ta
ㄉㄚˇ	dǎ			
ㄉㄚˊ	dá			
ㄉㄚˋ	dà			
ㄉㄜ	dē	de	de	te
ㄉㄜˊ	dé			
ㄉㄞ	dāi	dai	dai	tai
ㄉㄞˇ	dǎi			
ㄉㄞˋ	dài			
ㄉㄟ	dēi	dei	dei	tei
ㄉㄟˇ	děi			
ㄉㄠ	dāo	dau	dau	tao
ㄉㄠˇ	dǎo			
ㄉㄠˊ	dáo			
ㄉㄠˋ	dào			
ㄉㄡ	dōu	dou	dou	tou
ㄉㄡˇ	dǒu			
ㄉㄡˊ	dóu			
ㄉㄡˋ	dòu			
ㄉㄢ	dān	dan	dan	tan
ㄉㄢˇ	dǎn			
ㄉㄢˊ	dán			
ㄉㄢˋ	dàn			
ㄉㄣˋ	dèn			
ㄉㄤ	dāng	dang	dang	tang
ㄉㄤˇ	dǎng			
ㄉㄤˋ	dàng			
ㄉㄥ	dēng	deng	dang	teng
ㄉㄥˇ	děng			
ㄉㄥˋ	dèng			
ㄉㄧ	dī	di	di	ti
ㄉㄧˇ	dǐ			
ㄉㄧˊ	dí			
ㄉㄧˋ	dì			
ㄉㄧㄚˇ	diǎ			
ㄉㄧㄝ	diē	die	dye	tieh
ㄉㄧㄝˇ	diě			
ㄉㄧㄝˊ	dié			
ㄉㄧㄝˋ	diè			
ㄉㄧㄠ	diāo	diau	dyau	tiao
ㄉㄧㄠˇ	diǎo			
ㄉㄧㄠˊ	diáo			
ㄉㄧㄠˋ	diào			
ㄉㄧㄡ	diū	diou	dyou	tiu
ㄉㄧㄢ	diān	dian	dyan	tien
ㄉㄧㄢˇ	diǎn			
ㄉㄧㄢˊ	dián			
ㄉㄧㄢˋ	diàn			
ㄉㄧㄥ	dīng	ding	ding	ting
ㄉㄧㄥˇ	dǐng			
ㄉㄧㄥˊ	díng			
ㄉㄧㄥˋ	dìng			
ㄉㄨ	dū	du	du	tu
ㄉㄨˇ	dǔ			
ㄉㄨˊ	dú			
ㄉㄨˋ	dù			
ㄉㄨㄛ	duō	duo	dwo	to
ㄉㄨㄛˇ	duǒ			
ㄉㄨㄛˊ	duó			
ㄉㄨㄛˋ	duò			
ㄉㄨㄟ	duī	duei	dwei	tui
ㄉㄨㄟˇ	duǐ			
ㄉㄨㄟˋ	duì			
ㄉㄨㄢ	duān	duan	dwan	tuan
ㄉㄨㄢˇ	duǎn			
ㄉㄨㄢˋ	duàn			
ㄉㄨㄣ	dūn	duen	dwun	tun
ㄉㄨㄣˇ	dǔn			
ㄉㄨㄣˊ	dún			
ㄉㄨㄣˋ	dùn			
ㄉㄨㄥ	dōng	dung	dung	tung
ㄉㄨㄥˇ	dǒng			
ㄉㄨㄥˋ	dòng			
ㄊ	t			
ㄊㄚ	tā	ta	ta	t'a
ㄊㄚˇ	tǎ			
ㄊㄚˊ	tá			
ㄊㄚˋ	tà			
ㄊㄜ	tē	te	te	t'e
ㄊㄜˋ	tè			
ㄊㄞ	tāi	tai	tai	t'ai
ㄊㄞˇ	tǎi			
ㄊㄞˊ	tái			
ㄊㄞˋ	tài			
ㄊㄠ	tāo	tau	tau	t'ao
ㄊㄠˇ	tǎo			
ㄊㄠˊ	táo			
ㄊㄠˋ	tào			
ㄊㄡ	tōu	tou	tou	t'ou
ㄊㄡˇ	tǒu			
ㄊㄡˊ	tóu			
ㄊㄡˋ	tòu			
ㄊㄢ	tān	tan	tan	t'an
ㄊㄢˇ	tǎn			
ㄊㄢˊ	tán			
ㄊㄢˋ	tàn			
ㄊㄤ	tāng	tang	tang	t'ang
ㄊㄤˇ	tǎng			
ㄊㄤˊ	táng			
ㄊㄤˋ	tàng			
ㄊㄥ	tēng	teng	teng	t'eng
ㄊㄥˊ	téng			
ㄊㄥˋ	tèng			
ㄊㄧ	tī	ti	ti	t'i
ㄊㄧˇ	tǐ			
ㄊㄧˊ	tí			
ㄊㄧˋ	tì			
ㄊㄧㄝ	tiē	tie	tye	t'ieh
ㄊㄧㄝˇ	tiě			
ㄊㄧㄝˊ	tié			
ㄊㄧㄝˋ	tiè			
ㄊㄧㄠ	tiāo	tiau	tyau	t'iao
ㄊㄧㄠˇ	tiǎo			
ㄊㄧㄠˊ	tiáo			
ㄊㄧㄠˋ	tiào			
ㄊㄧㄢ	tiān	tian	tyan	t'ien
ㄊㄧㄢˇ	tiǎn			
ㄊㄧㄢˊ	tián			
ㄊㄧㄢˋ	tiàn			
ㄊㄧㄥ	tīng	ting	ting	t'ing
ㄊㄧㄥˇ	tǐng			
ㄊㄧㄥˊ	tíng			
ㄊㄧㄥˋ	tìng			
ㄊㄨ	tū	tu	tu	t'u
ㄊㄨˇ	tǔ			
ㄊㄨˊ	tú			
ㄊㄨˋ	tù			
ㄊㄨㄛ	tuō	tuo	two	t'o
ㄊㄨㄛˇ	tuǒ			
ㄊㄨㄛˊ	tuó			
ㄊㄨㄛˋ	tuò			
ㄊㄨㄟ	tuī	tuei	twei	t'ui
ㄊㄨㄟˇ	tuǐ			
ㄊㄨㄟˊ	tuí			
ㄊㄨㄟˋ	tuì			
ㄊㄨㄢ	tuān	tuan	twan	t'uan
ㄊㄨㄢˇ	tuǎn			
ㄊㄨㄢˊ	tuán			
ㄊㄨㄢˋ	tuàn			
ㄊㄨㄣ	tūn	tuen	twun	t'un
ㄊㄨㄣˇ	tǔn			
ㄊㄨㄣˊ	tún			
ㄊㄨㄣˋ	tùn			
ㄊㄨㄥ	tōng	tung	tung	t'ung
ㄊㄨㄥˇ	tǒng			
ㄊㄨㄥˊ	tóng			
ㄊㄨㄥˋ	tòng			
ㄋㄚ	nā	na	na	na
ㄋㄚˇ	nǎ			
ㄋㄚˊ	ná			
ㄋㄚˋ	nà			
ㄋㄜ	nē	ne	ne	ne
ㄋㄜˊ	né			
ㄋㄜˋ	nè			
ㄋㄞ	nāi	nai	nai	nai
ㄋㄞˇ	nǎi			
ㄋㄞˊ	nái			
ㄋㄞˋ	nài			
ㄋㄟ	nēi	nei	nei	nei
ㄋㄟˇ	něi			
ㄋㄟˊ	néi			
ㄋㄟˋ	nèi			
ㄋㄠ	nāo	nau	nau	nao
ㄋㄠˇ	nǎo			
ㄋㄠˊ	náo			
ㄋㄠˋ	nào			
ㄋㄡ	nōu	nou	nou	nou
ㄋㄡˇ	nǒu			
ㄋㄡˊ	nóu			
ㄋㄡˋ	nòu			
ㄋㄢ	nān	nan	nan	nan
ㄋㄢˇ	nǎn			
ㄋㄢˊ	nán			
ㄋㄢˋ	nàn			
ㄋㄣ	nēn	nen	nen	nen
ㄋㄣˇ	něn			
ㄋㄣˊ	nén			
ㄋㄣˋ	nèn			
ㄋㄤ	nāng	nang	nang	nang
ㄋㄤˇ	nǎng			
ㄋㄤˊ	náng			
ㄋㄤˋ	nàng			
ㄋㄥ	nēng	neng	neng	neng
ㄋㄥˇ	něng			
ㄋㄥˊ	néng			
ㄋㄥˋ	nèng			
ㄋㄧ	nī	ni	ni	ni
ㄋㄧˇ	nǐ			
ㄋㄧˊ	ní			
ㄋㄧˋ	nì			
ㄋㄧㄝ	niē	nie	nye	nieh
ㄋㄧㄝˇ	niě			
ㄋㄧㄝˊ	nié			
ㄋㄧㄝˋ	niè			
ㄋㄧㄠ	niāo	niau	nyau	niao
ㄋㄧㄠˇ	niǎo			
ㄋㄧㄠˋ	niào			
ㄋㄧㄡ	niū	niou	nyou	niu
ㄋㄧㄡˇ	niǔ			
ㄋㄧㄡˊ	niú			
ㄋㄧㄡˋ	niù			
ㄋㄧㄢ	niān	nian	nyan	nien
ㄋㄧㄢˇ	niǎn			
ㄋㄧㄢˊ	nián			
ㄋㄧㄢˋ	niàn			
ㄋㄧㄣ	nīn	nin	nin	nin
ㄋㄧㄣˇ	nǐn			
ㄋㄧㄣˊ	nín			
ㄋㄧㄣˋ	nìn			
ㄋㄧㄤ	niāng	niang	nyang	niang
ㄋㄧㄤˇ	niǎng			
ㄋㄧㄤˊ	niáng			
ㄋㄧㄤˋ	niàng			
ㄋㄧㄥ	nīng	ning	ning	ning
ㄋㄧㄥˇ	nǐng			
ㄋㄧㄥˊ	níng			
ㄋㄧㄥˋ	nìng			
ㄋㄨ	nū	nu	nu	nu
ㄋㄨˇ	nǔ			
ㄋㄨˊ	nú			
ㄋㄨˋ	nù			
ㄋㄨㄛ	nuō	nuo	nwo	no
ㄋㄨㄛˇ	nuǒ			
ㄋㄨㄛˊ	nuó			
ㄋㄨㄛˋ	nuò			
ㄋㄨㄢ	nuān	nuan	nwan	nuan
ㄋㄨㄢˇ	nuǎn			
ㄋㄨㄢˊ	nuán			
ㄋㄨㄢˋ	nuàn			
ㄋㄨㄥ	nōng	nung	nung	nung
ㄋㄨㄥˇ	nǒng			
ㄋㄨㄥˊ	nóng			
ㄋㄨㄥˋ	nòng			
ㄋㄩ	nǖ	niu	nyu	nv
ㄋㄩˇ	nǚ			
ㄋㄩˊ	nǘ			
ㄋㄩˋ	nǜ			
ㄋㄩㄝ	nüē	niue	nywe	nueh
ㄋㄩㄝˋ	nüè			
ㄌㄚ	lā	la	la	la
ㄌㄚˇ	lǎ			
ㄌㄚˊ	lá			
ㄌㄚˋ	là			
ㄌㄛ	lō	lo	lo	lo
ㄌㄜ	lē	le	le	le
ㄌㄜˊ	lé			
ㄌㄜˋ	lè			
ㄌㄞ	lāi	lai	lai	lai
ㄌㄞˇ	lǎi			
ㄌㄞˊ	lái			
ㄌㄞˋ	lài			
ㄌㄟ	lēi	lei	lei	lei
ㄌㄟˇ	lěi			
ㄌㄟˊ	léi			
ㄌㄟˋ	lèi			
ㄌㄠ	lāo	lau	lau	lao
ㄌㄠˇ	lǎo			
ㄌㄠˊ	láo			
ㄌㄠˋ	lào			
ㄌㄡ	lōu	lou	lou	lou
ㄌㄡˇ	lǒu			
ㄌㄡˊ	lóu			
ㄌㄡˋ	lòu			
ㄌㄢ	lān	lan	lan	lan
ㄌㄢˇ	lǎn			
ㄌㄢˊ	lán			
ㄌㄢˋ	làn			
ㄌㄤ	lāng	lang	lang	lang
ㄌㄤˇ	lǎng			
ㄌㄤˊ	láng			
ㄌㄤˋ	làng			
ㄌㄥ	lēng	leng	leng	leng
ㄌㄥˇ	lěng			
ㄌㄥˊ	léng			
ㄌㄥˋ	lèng			
ㄌㄧ	lī	li	li	li
ㄌㄧˇ	lǐ			
ㄌㄧˊ	lí			
ㄌㄧˋ	lì			
ㄌㄧㄚ	liā	lia	lya	lia
ㄌㄧㄚˇ	liǎ			
ㄌㄧㄝ	liē	lie	lye	lieh
ㄌㄧㄝˇ	liě			
ㄌㄧㄝˊ	lié			
ㄌㄧㄝˋ	liè			
ㄌㄧㄠ	liāo	liau	lyau	liao
ㄌㄧㄠˇ	liǎo			
ㄌㄧㄠˊ	liáo			
ㄌㄧㄠˋ	liào			
ㄌㄧㄡ	liū	liou	lyou	liu
ㄌㄧㄡˇ	liǔ			
ㄌㄧㄡˊ	liú			
ㄌㄧㄡˋ	liù			
ㄌㄧㄢ	liān	lian	lyan	lien
ㄌㄧㄢˇ	liǎn			
ㄌㄧㄢˊ	lián			
ㄌㄧㄢˋ	liàn			
ㄌㄧㄣ	līn	lin	lin	lin
ㄌㄧㄣˇ	lǐn			
ㄌㄧㄣˊ	lín			
ㄌㄧㄣˋ	lìn			
ㄌㄧㄤ	liāng	liang	lyang	liang
ㄌㄧㄤˇ	liǎng			
ㄌㄧㄤˊ	liáng			
ㄌㄧㄤˋ	liàng			
ㄌㄧㄥ	līng	ling	ling	ling
ㄌㄧㄥˇ	lǐng			
ㄌㄧㄥˊ	líng			
ㄌㄧㄥˋ	lìng			
ㄌㄨ	lū	lu	lu	lu
ㄌㄨˇ	lǔ			
ㄌㄨˊ	lú			
ㄌㄨˋ	lù			
ㄌㄨㄛ	luō	luo	lwo	luo
ㄌㄨㄛˇ	luǒ			
ㄌㄨㄛˊ	luó			
ㄌㄨㄛˋ	luò			
ㄌㄨㄢ	luān	luan	lwan	luan
ㄌㄨㄢˇ	luǎn			
ㄌㄨㄢˊ	luán			
ㄌㄨㄢˋ	luàn			
ㄌㄨㄣ	lūn	luen	lwun	lun
ㄌㄨㄣˇ	lǔn			
ㄌㄨㄣˊ	lún			
ㄌㄨㄣˋ	lùn			
ㄌㄨㄥ	lōng	lung	lung	lung
ㄌㄨㄥˇ	lǒng			
ㄌㄨㄥˊ	lóng			
ㄌㄨㄥˋ	lòng			
ㄌㄩ	lǖ	liu	lyu	lv
ㄌㄩˇ	lǚ			
ㄌㄩˊ	lǘ			
ㄌㄩˋ	lǜ			
ㄌㄩㄝ	lüē	liue	lywe	lueh
ㄌㄩㄝˇ	lüě			
ㄌㄩㄝˋ	lüè			
ㄌㄩㄢ	lüān	liuan	lywan	lvan
ㄌㄩㄢˇ	lüǎn			
ㄌㄩㄢˊ	lüán			
ㄍㄚ	gā	ga	ga	ka
ㄍㄚˇ	gǎ			
ㄍㄚˊ	gá			
ㄍㄚˋ	gà			
ㄍㄜ	gē	ge	ge	ke
ㄍㄜˇ	gě			
ㄍㄜˊ	gé			
ㄍㄜˋ	gè			
ㄍㄞ	gāi	gai	gai	kai
ㄍㄞˇ	gǎi			
ㄍㄞˋ	gài			
ㄍㄟ	gēi	gei	gei	kei
ㄍㄟˇ	gěi			
ㄍㄟˊ	géi			
ㄍㄠ	gāo	gau	gau	kao
ㄍㄠˇ	gǎo			
ㄍㄠˋ	gào			
ㄍㄡ	gōu	gou	gou	kou
ㄍㄡˇ	gǒu			
ㄍㄡˋ	gòu			
ㄍㄢ	gān	gan	gan	kan
ㄍㄢˇ	gǎn			
ㄍㄢˋ	gàn			
ㄍㄣ	gēn	gen	gen	ken
ㄍㄣˇ	gěn			
ㄍㄣˊ	gén			
ㄍㄣˋ	gèn			
ㄍㄤ	gāng	gang	gang	kang
ㄍㄤˇ	gǎng			
ㄍㄤˋ	gàng			
ㄍㄥ	gēng	geng	geng	keng
ㄍㄥˇ	gěng			
ㄍㄥˋ	gèng			
ㄍㄨ	gū	gu	gu	ku
ㄍㄨˇ	gǔ			
ㄍㄨˊ	gú			
ㄍㄨˋ	gù			
ㄍㄨㄚ	guā	gua	gwa	kua
ㄍㄨㄚˇ	guǎ			
ㄍㄨㄚˊ	guá			
ㄍㄨㄚˋ	guà			
ㄍㄨㄛ	guō	guo	gwo	kuo
ㄍㄨㄛˇ	guǒ			
ㄍㄨㄛˊ	guó			
ㄍㄨㄛˋ	guò			
ㄍㄨㄞ	guāi	guai	gwai	kuai
ㄍㄨㄞˇ	guǎi			
ㄍㄨㄞˋ	guài			
ㄍㄨㄟ	guī	guei	gwei	kuei
ㄍㄨㄟˇ	guǐ			
ㄍㄨㄟˋ	guì			
ㄍㄨㄢ	guān	guan	gwan	kuan
ㄍㄨㄢˇ	guǎn			
ㄍㄨㄢˊ	guán			
ㄍㄨㄢˋ	guàn			
ㄍㄨㄣ	gūn	guen	gwun	kun
ㄍㄨㄣˇ	gǔn			
ㄍㄨㄣˊ	gún			
ㄍㄨㄣˋ	gùn			
ㄍㄨㄤ	guāng	guang	gwang	kuang
ㄍㄨㄤˇ	guǎng			
ㄍㄨㄤˋ	guàng			
ㄍㄨㄥ	gōng	gung	gung	kung
ㄍㄨㄥˇ	gǒng			
ㄍㄨㄥˊ	góng			
ㄍㄨㄥˋ	gòng			
ㄎㄚ	kā	ka	ka	k'a
ㄎㄚˇ	kǎ			
ㄎㄚˋ	kà			
ㄎㄜ	kē	ke	ke	k'e
ㄎㄜˇ	kě			
ㄎㄜˊ	ké			
ㄎㄜˋ	kè			
ㄎㄞ	kāi	kai	kai	k'ai
ㄎㄞˇ	kǎi			
ㄎㄞˋ	kài			
ㄎㄠ	kāo	kau	kau	k'ao
ㄎㄠˇ	kǎo			
ㄎㄠˋ	kào			
ㄎㄡ	kōu	kou	kou	k'ou
ㄎㄡˇ	kǒu			
ㄎㄡˋ	kòu			
ㄎㄢ	kān	kan	kan	k'an
ㄎㄢˇ	kǎn			
ㄎㄢˋ	kàn			
ㄎㄣ	kēn	ken	ken	k'en
ㄎㄣˇ	kěn			
ㄎㄣˋ	kèn			
ㄎㄤ	kāng	kang	kang	k'ang
ㄎㄤˇ	kǎng			
ㄎㄤˊ	káng			
ㄎㄤˋ	kàng			
ㄎㄥ	kēng	keng	keng	k'eng
ㄎㄥˇ	kěng			
ㄎㄨ	kū	ku	ku	k'u
ㄎㄨˇ	kǔ			
ㄎㄨˊ	kú			
ㄎㄨˋ	kù			
ㄎㄨㄚ	kuā	kua	kwa	k'ua
ㄎㄨㄚˇ	kuǎ			
ㄎㄨㄚˋ	kuà			
ㄎㄨㄛ	kuō	kuo	kwo	k'uo
ㄎㄨㄛˇ	kuǒ			
ㄎㄨㄛˋ	kuò			
ㄎㄨㄞ	kuāi	kuai	kwai	k'uai
ㄎㄨㄞˇ	kuǎi			
ㄎㄨㄞˋ	kuài			
ㄎㄨㄟ	kuī	kuei	kwei	k'uei
ㄎㄨㄟˇ	kuǐ			
ㄎㄨㄟˊ	kuí			
ㄎㄨㄟˋ	kuì			
ㄎㄨㄢ	kuān	kuan	kwan	k'uan
ㄎㄨㄢˇ	kuǎn			
ㄎㄨㄢˋ	kuàn			
ㄎㄨㄣ	kūn	kuen	kwun	k'un
ㄎㄨㄣˇ	kǔn			
ㄎㄨㄣˋ	kùn			
ㄎㄨㄤ	kuāng	kuang	kwang	k'uang
ㄎㄨㄤˇ	kuǎng			
ㄎㄨㄤˊ	kuáng			
ㄎㄨㄤˋ	kuàng			
ㄎㄨㄥ	kōng	kung	kung	k'ung
ㄎㄨㄥˇ	kǒng			
ㄎㄨㄥˋ	kòng			
ㄏㄚ	hā	ha	ha	ha
ㄏㄚˇ	hǎ			
ㄏㄚˊ	há			
ㄏㄜ	hē	he	he	he
ㄏㄜˇ	hě			
ㄏㄜˊ	hé			
ㄏㄜˋ	hè			
ㄏㄞ	hāi	hai	hai	hai
ㄏㄞˇ	hǎi			
ㄏㄞˊ	hái			
ㄏㄞˋ	hài			
ㄏㄟ	hēi	hei	hei	hei
ㄏㄟˇ	hěi			
ㄏㄠ	hāo	hau	hau	hao
ㄏㄠˇ	hǎo			
ㄏㄠˊ	háo			
ㄏㄠˋ	hào			
ㄏㄡ	hōu	hou	hou	hou
ㄏㄡˇ	hǒu			
ㄏㄡˊ	hóu			
ㄏㄡˋ	hòu			
ㄏㄢ	hān	han	han	han
ㄏㄢˇ	hǎn			
ㄏㄢˊ	hán			
ㄏㄢˋ	hàn			
ㄏㄣ	hēn	hen	hen	hen
ㄏㄣˇ	hěn			
ㄏㄣˊ	hén			
ㄏㄣˋ	hèn			
ㄏㄤ	hāng	hang	hang	hang
ㄏㄤˇ	hǎng			
ㄏㄤˊ	háng			
ㄏㄤˋ	hàng			
ㄏㄥ	hēng	heng	heng	heng
ㄏㄥˊ	héng			
ㄏㄥˋ	hèng			
ㄏㄨ	hū	hu	hu	hu
ㄏㄨˇ	hǔ			
ㄏㄨˊ	hú			
ㄏㄨˋ	hù			
ㄏㄨㄚ	huā	hua	hwa	hua
ㄏㄨㄚˇ	huǎ			
ㄏㄨㄚˊ	huá			
ㄏㄨㄚˋ	huà			
ㄏㄨㄛ	huō	huo	hwo	huo
ㄏㄨㄛˇ	huǒ			
ㄏㄨㄛˊ	huó			
ㄏㄨㄛˋ	huò			
ㄏㄨㄞ	huāi	huai	hwai	huai
ㄏㄨㄞˊ	huái			
ㄏㄨㄞˋ	huài			
ㄏㄨㄟ	huī	huei	hwei	hui
ㄏㄨㄟˇ	huǐ			
ㄏㄨㄟˊ	huí			
ㄏㄨㄟˋ	huì			
ㄏㄨㄢ	huān	huan	hwan	huan
ㄏㄨㄢˇ	huǎn			
ㄏㄨㄢˊ	huán			
ㄏㄨㄢˋ	huàn			
ㄏㄨㄣ	hūn	huen	hwun	hun
ㄏㄨㄣˇ	hǔn			
ㄏㄨㄣˊ	hún			
ㄏㄨㄣˋ	hùn			
ㄏㄨㄤ	huāng	huang	hwang	huang
ㄏㄨㄤˇ	huǎng			
ㄏㄨㄤˊ	huáng			
ㄏㄨㄤˋ	huàng			
ㄏㄨㄥ	hōng	hung	hung	hung
ㄏㄨㄥˇ	hǒng			
ㄏㄨㄥˊ	hóng			
ㄏㄨㄥˋ	hòng			
ㄐ	j			
ㄐㄧ	jī	ji	ji	chi
ㄐㄧˇ	jǐ			
ㄐㄧˊ	jí			
ㄐㄧˋ	jì			
ㄐㄧㄚ	jiā	jia	jya	chia
ㄐㄧㄚˇ	jiǎ			
ㄐㄧㄚˊ	jiá			
ㄐㄧㄚˋ	jià			
ㄐㄧㄝ	jiē	jie	jye	chieh
ㄐㄧㄝˇ	jiě			
ㄐㄧㄝˊ	jié			
ㄐㄧㄝˋ	jiè			
ㄐㄧㄠ	jiāo	jiau	jyau	chiao
ㄐㄧㄠˇ	jiǎo			
ㄐㄧㄠˊ	jiáo			
ㄐㄧㄠˋ	jiào			
ㄐㄧㄡ	jiū	jiou	jyou	chiu
ㄐㄧㄡˇ	jiǔ			
ㄐㄧㄡˋ	jiù			
ㄐㄧㄢ	jiān	jian	jyan	chien
ㄐㄧㄢˇ	jiǎn			
ㄐㄧㄢˊ	jián			
ㄐㄧㄢˋ	jiàn			
ㄐㄧㄣ	jīn	jin	jin	chin
ㄐㄧㄣˇ	jǐn			
ㄐㄧㄣˋ	jìn			
ㄐㄧㄤ	jiāng	jiang	jyang	chiang
ㄐㄧㄤˇ	jiǎng			
ㄐㄧㄤˊ	jiáng			
ㄐㄧㄤˋ	jiàng			
ㄐㄧㄥ	jīng	jing	jing	ching
ㄐㄧㄥˇ	jǐng			
ㄐㄧㄥˋ	jìng			
ㄐㄩ	jū	jiu	jyu	chv
ㄐㄩˇ	jǔ			
ㄐㄩˊ	jú			
ㄐㄩˋ	jù			
ㄐㄩㄝ	juē	jiue	jywe	chueh
ㄐㄩㄝˇ	juě			
ㄐㄩㄝˊ	jué			
ㄐㄩㄝˋ	juè			
ㄐㄩㄢ	juān	jiuan	jywan	chvan
ㄐㄩㄢˇ	juǎn			
ㄐㄩㄢˋ	juàn			
ㄐㄩㄣ	jūn	jiun	jyun	chvn
ㄐㄩㄣˇ	jǔn			
ㄐㄩㄣˊ	jún			
ㄐㄩㄣˋ	jùn			
ㄐㄩㄥ	jiōng	jiung	jyung	chiung
ㄐㄩㄥˇ	jiǒng			
ㄐㄩㄥˋ	jiòng			
ㄑㄧ	qī	chi	chi	ch'i
ㄑㄧˇ	qǐ			
ㄑㄧˊ	qí			
ㄑㄧˋ	qì			
ㄑㄧㄚ	qiā	chia	chya	ch'ia
ㄑㄧㄚˇ	qiǎ			
ㄑㄧㄚˊ	qiá			
ㄑㄧㄚˋ	qià			
ㄑㄧㄝ	qiē	chie	chye	ch'ieh
ㄑㄧㄝˇ	qiě			
ㄑㄧㄝˊ	qié			
ㄑㄧㄝˋ	qiè			
ㄑㄧㄠ	qiāo	chiau	chyau	ch'iao
ㄑㄧㄠˇ	qiǎo			
ㄑㄧㄠˊ	qiáo			
ㄑㄧㄠˋ	qiào			
ㄑㄧㄡ	qiū	chiou	chyou	ch'iu
ㄑㄧㄡˇ	qiǔ			
ㄑㄧㄡˊ	qiú			
ㄑㄧㄡˋ	qiù			
ㄑㄧㄢ	qiān	chian	chyan	ch'ien
ㄑㄧㄢˇ	qiǎn			
ㄑㄧㄢˊ	qián			
ㄑㄧㄢˋ	qiàn			
ㄑㄧㄣ	qīn	chin	chin	ch'in
ㄑㄧㄣˇ	qǐn			
ㄑㄧㄣˊ	qín			
ㄑㄧㄣˋ	qìn			
ㄑㄧㄤ	qiāng	chiang	chyang	ch'iang
ㄑㄧㄤˇ	qiǎng			
ㄑㄧㄤˊ	qiáng			
ㄑㄧㄤˋ	qiàng			
ㄑㄧㄥ	qīng	ching	ching	ch'ing
ㄑㄧㄥˇ	qǐng			
ㄑㄧㄥˊ	qíng			
ㄑㄧㄥˋ	qìng			
ㄑㄩ	qū	chiu	chyu	ch'v
ㄑㄩˇ	qǔ			
ㄑㄩˊ	qú			
ㄑㄩˋ	qù			
ㄑㄩㄝ	quē	chiue	chywe	ch'ueh
ㄑㄩㄝˊ	qué			
ㄑㄩㄝˋ	què			
ㄑㄩㄢ	quān	chiuan	chywan	ch'van
ㄑㄩㄢˇ	quǎn			
ㄑㄩㄢˊ	quán			
ㄑㄩㄢˋ	quàn			
ㄑㄩㄣ	qūn	chiun	chyun	ch'vn
ㄑㄩㄣˇ	qǔn			
ㄑㄩㄣˊ	qún			
ㄑㄩㄣˋ	qùn			
ㄑㄩㄥ	qiōng	chiung	chyung	ch'iung
ㄑㄩㄥˇ	qiǒng			
ㄑㄩㄥˊ	qióng			
ㄑㄩㄥˋ	qiòng			
ㄒㄧ	xī	shi	xyi	hsi
ㄒㄧˇ	xǐ			
ㄒㄧˊ	xí			
ㄒㄧˋ	xì			
ㄒㄧㄚ	xiā	shia	sya	hsia
ㄒㄧㄚˇ	xiǎ			
ㄒㄧㄚˊ	xiá			
ㄒㄧㄚˋ	xià			
ㄒㄧㄝ	xiē	shie	sye	hsieh
ㄒㄧㄝˇ	xiě			
ㄒㄧㄝˊ	xié			
ㄒㄧㄝˋ	xiè			
ㄒㄧㄠ	xiāo	shiau	syau	hsiao
ㄒㄧㄠˇ	xiǎo			
ㄒㄧㄠˊ	xiáo			
ㄒㄧㄠˋ	xiào			
ㄒㄧㄡ	xiū	shiou	syou	hsiu
ㄒㄧㄡˇ	xiǔ			
ㄒㄧㄡˊ	xiú			
ㄒㄧㄡˋ	xiù			
ㄒㄧㄢ	xiān	shian	syan	hsien
ㄒㄧㄢˇ	xiǎn			
ㄒㄧㄢˊ	xián			
ㄒㄧㄢˋ	xiàn			
ㄒㄧㄣ	xīn	shin	syin	hsin
ㄒㄧㄣˇ	xǐn			
ㄒㄧㄣˊ	xín			
ㄒㄧㄣˋ	xìn			
ㄒㄧㄤ	xiāng	shiang	syang	hsiang
ㄒㄧㄤˇ	xiǎng			
ㄒㄧㄤˊ	xiáng			
ㄒㄧㄤˋ	xiàng			
ㄒㄧㄥ	xīng	shing	sying	hsing
ㄒㄧㄥˇ	xǐng			
ㄒㄧㄥˊ	xíng			
ㄒㄧㄥˋ	xìng			
ㄒㄩ	xū	shiu	syu	hsu
ㄒㄩˇ	xǔ			
ㄒㄩˊ	xú			
ㄒㄩˋ	xù			
ㄒㄩㄝ	xuē	shiue	sywe	hsueh
ㄒㄩㄝˇ	xuě			
ㄒㄩㄝˊ	xué			
ㄒㄩㄝˋ	xuè			
ㄒㄩㄢ	xuān	shiuan	sywan	hsuan
ㄒㄩㄢˇ	xuǎn			
ㄒㄩㄢˊ	xuán			
ㄒㄩㄢˋ	xuàn			
ㄒㄩㄣ	xūn	shiun	syun	hsun
ㄒㄩㄣˇ	xǔn			
ㄒㄩㄣˊ	xún			
ㄒㄩㄣˋ	xùn			
ㄒㄩㄥ	xiōng	shiung	syung	hsiung
ㄒㄩㄥˇ	xiǒng			
ㄒㄩㄥˊ	xióng			
ㄒㄩㄥˋ	xiòng			
ㄓ	zhī	jr	jr	chih
ㄓˇ	zhǐ			
ㄓˊ	zhí			
ㄓˋ	zhì			
ㄓㄚ	zhā	ja	ja	cha
ㄓㄚˇ	zhǎ			
ㄓㄚˊ	zhá			
ㄓㄚˋ	zhà			
ㄓㄜ	zhē	je	je	che
ㄓㄜˇ	zhě			
ㄓㄜˊ	zhé			
ㄓㄜˋ	zhè			
ㄓㄞ	zhāi	jai	jai	chai
ㄓㄞˇ	zhǎi			
ㄓㄞˊ	zhái			
ㄓㄞˋ	zhài			
ㄓㄟ	zhēi	jei	jei	chei
ㄓㄟˋ	zhèi			
ㄓㄠ	zhāo	jau	jau	chao
ㄓㄠˇ	zhǎo			
ㄓㄠˊ	zháo			
ㄓㄠˋ	zhào			
ㄓㄡ	zhōu	jou	jou	chou
ㄓㄡˇ	zhǒu			
ㄓㄡˊ	zhóu			
ㄓㄡˋ	zhòu			
ㄓㄢ	zhān	jan	jan	chan
ㄓㄢˇ	zhǎn			
ㄓㄢˋ	zhàn			
ㄓㄣ	zhēn	jen	jen	chen
ㄓㄣˇ	zhěn			
ㄓㄣˊ	zhén			
ㄓㄣˋ	zhèn			
ㄓㄤ	zhāng	jang	jang	chang
ㄓㄤˇ	zhǎng			
ㄓㄤˋ	zhàng			
ㄓㄥ	zhēng	jeng	jeng	cheng
ㄓㄥˇ	zhěng			
ㄓㄥˋ	zhèng			
ㄓㄨ	zhū	ju	ju	chu
ㄓㄨˇ	zhǔ			
ㄓㄨˊ	zhú			
ㄓㄨˋ	zhù			
ㄓㄨㄚ	zhuā	jua	jwa	chua
ㄓㄨㄚˇ	zhuǎ			
ㄓㄨㄛ	zhuō	juo	jwo	cho
ㄓㄨㄛˇ	zhuǒ			
ㄓㄨㄛˊ	zhuó			
ㄓㄨㄛˋ	zhuò			
ㄓㄨㄞ	zhuāi	juai	jwai	chuai
ㄓㄨㄞˇ	zhuǎi			
ㄓㄨㄞˋ	zhuài			
ㄓㄨㄟ	zhuī	juei	jwei	chui
ㄓㄨㄟˇ	zhuǐ			
ㄓㄨㄟˋ	zhuì			
ㄓㄨㄢ	zhuān	juan	jwan	chuan
ㄓㄨㄢˇ	zhuǎn			
ㄓㄨㄢˋ	zhuàn			
ㄓㄨㄣ	zhūn	juen	jwun	chun
ㄓㄨㄣˇ	zhǔn			
ㄓㄨㄣˋ	zhùn			
ㄓㄨㄤ	zhuāng	juang	jwang	chuang
ㄓㄨㄤˇ	zhuǎng			
ㄓㄨㄤˋ	zhuàng			
ㄓㄨㄥ	zhōng	jung	jung	chung
ㄓㄨㄥˇ	zhǒng			
ㄓㄨㄥˊ	zhóng			
ㄓㄨㄥˋ	zhòng			
ㄔ	chī	chr	chr	ch'ih
ㄔˇ	chǐ			
ㄔˊ	chí			
ㄔˋ	chì			
ㄔㄚ	chā	cha	cha	ch'a
ㄔㄚˇ	chǎ			
ㄔㄚˊ	chá			
ㄔㄚˋ	chà			
ㄔㄜ	chē	che	che	ch'e
ㄔㄜˇ	chě			
ㄔㄜˋ	chè			
ㄔㄞ	chāi	chai	chai	ch'ai
ㄔㄞˇ	chǎi			
ㄔㄞˊ	chái			
ㄔㄞˋ	chài			
ㄔㄠ	chāo	chau	chau	ch'ao
ㄔㄠˇ	chǎo			
ㄔㄠˊ	cháo			
ㄔㄠˋ	chào			
ㄔㄡ	chōu	chou	chou	ch'ou
ㄔㄡˇ	chǒu			
ㄔㄡˊ	chóu			
ㄔㄡˋ	chòu			
ㄔㄢ	chān	chan	chan	ch'an
ㄔㄢˇ	chǎn			
ㄔㄢˊ	chán			
ㄔㄢˋ	chàn			
ㄔㄣ	chēn	chen	chen	ch'en
ㄔㄣˇ	chěn			
ㄔㄣˊ	chén			
ㄔㄣˋ	chèn			
ㄔㄤ	chāng	chang	chang	ch'ang
ㄔㄤˇ	chǎng			
ㄔㄤˊ	cháng			
ㄔㄤˋ	chàng			
ㄔㄥ	chēng	cheng	cheng	ch'eng
ㄔㄥˇ	chěng			
ㄔㄥˊ	chéng			
ㄔㄥˋ	chèng			
ㄔㄨ	chū	chu	chu	ch'u
ㄔㄨˇ	chǔ			
ㄔㄨˊ	chú			
ㄔㄨˋ	chù			
ㄔㄨㄚ	chuā	chua	chwa	ch'ua
ㄔㄨㄚˇ	chuǎ			
ㄔㄨㄚˋ	chuà			
ㄔㄨㄛ	chuō	chuo	chwo	ch'o
ㄔㄨㄛˋ	chuò			
ㄔㄨㄞ	chuāi	chuai	chwai	ch'uai
ㄔㄨㄞˇ	chuǎi			
ㄔㄨㄞˊ	chuái			
ㄔㄨㄞˋ	chuài			
ㄔㄨㄟ	chuī	chuei	chwei	ch'ui
ㄔㄨㄟˇ	chuǐ			
ㄔㄨㄟˊ	chuí			
ㄔㄨㄟˋ	chuì			
ㄔㄨㄢ	chuān	chuan	chwan	ch'uan
ㄔㄨㄢˇ	chuǎn			
ㄔㄨㄢˊ	chuán			
ㄔㄨㄢˋ	chuàn			
ㄔㄨㄣ	chūn	chuen	chwun	ch'un
ㄔㄨㄣˇ	chǔn			
ㄔㄨㄣˊ	chún			
ㄔㄨㄤ	chuāng	chuang	chwang	ch'uang
ㄔㄨㄤˇ	chuǎng			
ㄔㄨㄤˊ	chuáng			
ㄔㄨㄤˋ	chuàng			
ㄔㄨㄥ	chōng	chung	chung	ch'ung
ㄔㄨㄥˇ	chǒng			
ㄔㄨㄥˊ	chóng			
ㄔㄨㄥˋ	chòng			
ㄕ	shī	shr	shr	shih
ㄕˇ	shǐ			
ㄕˊ	shí			
ㄕˋ	shì			
ㄕㄚ	shā	sha	sha	sha
ㄕㄚˇ	shǎ			
ㄕㄚˊ	shá			
ㄕㄚˋ	shà			
ㄕㄜ	shē	she	she	she
ㄕㄜˇ	shě			
ㄕㄜˊ	shé			
ㄕㄜˋ	shè			
ㄕㄞ	shāi	shai	shai	shai
ㄕㄞˇ	shǎi			
ㄕㄞˋ	shài			
ㄕㄟ	shēi	shei	shei	shei
ㄕㄟˊ	shéi			
ㄕㄠ	shāo	shau	shau	shao
ㄕㄠˇ	shǎo			
ㄕㄠˊ	sháo			
ㄕㄠˋ	shào			
ㄕㄡ	shōu	shou	shou	shou
ㄕㄡˇ	shǒu			
ㄕㄡˊ	shóu			
ㄕㄡˋ	shòu			
ㄕㄢ	shān	shan	shan	shan
ㄕㄢˇ	shǎn			
ㄕㄢˊ	shán			
ㄕㄢˋ	shàn			
ㄕㄣ	shēn	shen	shen	shen
ㄕㄣˇ	shěn			
ㄕㄣˊ	shén			
ㄕㄣˋ	shèn			
ㄕㄤ	shāng	shang	shang	shang
ㄕㄤˇ	shǎng			
ㄕㄤˋ	shàng			
ㄕㄥ	shēng	sheng	sheng	sheng
ㄕㄥˇ	shěng			
ㄕㄥˊ	shéng			
ㄕㄥˋ	shèng			
ㄕㄨ	shū	shu	shu	shu
ㄕㄨˇ	shǔ			
ㄕㄨˊ	shú			
ㄕㄨˋ	shù			
ㄕㄨㄚ	shuā	shua	shwa	shua
ㄕㄨㄚˇ	shuǎ			
ㄕㄨㄚˋ	shuà			
ㄕㄨㄛ	shuō	shuo	shwo	shuo
ㄕㄨㄛˋ	shuò			
ㄕㄨㄞ	shuāi	shuai	shwai	shuai
ㄕㄨㄞˇ	shuǎi			
ㄕㄨㄞˋ	shuài			
ㄕㄨㄟ	shuī	shuei	shwei	shui
ㄕㄨㄟˇ	shuǐ			
ㄕㄨㄟˊ	shuí			
ㄕㄨㄟˋ	shuì			
ㄕㄨㄢ	shuān	shuan	shwan	shuan
ㄕㄨㄢˋ	shuàn			
ㄕㄨㄣ	shūn	shuen	shwun	shun
ㄕㄨㄣˇ	shǔn			
ㄕㄨㄣˋ	shùn			
ㄕㄨㄤ	shuāng	shuang	shwang	shuang
ㄕㄨㄤˇ	shuǎng			
ㄕㄨㄤˊ	shuáng			
ㄕㄨㄤˋ	shuàng			
ㄖ	rī	r	r	jih
ㄖˋ	rì			
ㄖㄜ	rē	re	re	je
ㄖㄜˇ	rě			
ㄖㄜˋ	rè			
ㄖㄠ	rāo	rau	rau	jao
ㄖㄠˇ	rǎo			
ㄖㄠˊ	ráo			
ㄖㄠˋ	rào			
ㄖㄡ	rōu	rou	rou	jou
ㄖㄡˇ	rǒu			
ㄖㄡˊ	róu			
ㄖㄡˋ	ròu			
ㄖㄢ	rān	ran	ran	jan
ㄖㄢˇ	rǎn			
ㄖㄢˊ	rán			
ㄖㄢˋ	ràn			
ㄖㄣ	rēn	ren	ren	jen
ㄖㄣˇ	rěn			
ㄖㄣˊ	rén			
ㄖㄣˋ	rèn			
ㄖㄤ	rāng	rang	rang	jang
ㄖㄤˇ	rǎng			
ㄖㄤˊ	ráng			
ㄖㄤˋ	ràng			
ㄖㄥ	rēng	reng	reng	jeng
ㄖㄥˇ	rěng			
ㄖㄥˊ	réng			
ㄖㄥˋ	rèng			
ㄖㄨ	rū	ru	ru	ju
ㄖㄨˇ	rǔ			
ㄖㄨˊ	rú			
ㄖㄨˋ	rù			
ㄖㄨㄛ	ruō	ruo	rwo	jo
ㄖㄨㄛˊ	ruó			
ㄖㄨㄛˋ	ruò			
ㄖㄨㄟ	ruī	ruei	rwei	jui
ㄖㄨㄟˇ	ruǐ			
ㄖㄨㄟˊ	ruí			
ㄖㄨㄟˋ	ruì			
ㄖㄨㄢ	ruān	ruan	rwan	juan
ㄖㄨㄢˇ	ruǎn			
ㄖㄨㄢˊ	ruán			
ㄖㄨㄢˋ	ruàn			
ㄖㄨㄣ	rūn	ruen	rwun	jun
ㄖㄨㄣˇ	rǔn			
ㄖㄨㄣˊ	rún			
ㄖㄨㄣˋ	rùn			
ㄖㄨㄥ	rōng	rung	rung	jung
ㄖㄨㄥˇ	rǒng			
ㄖㄨㄥˊ	róng			
ㄖㄨㄥˋ	ròng			
ㄗ	zī	tz	dz	tzu
ㄗˇ	zǐ			
ㄗˊ	zí			
ㄗˋ	zì			
ㄗㄚ	zā	tza	dza	tsa
ㄗㄚˇ	zǎ			
ㄗㄚˊ	zá			
ㄗㄜ	zē	tze	dze	tse
ㄗㄜˇ	zě			
ㄗㄜˊ	zé			
ㄗㄜˋ	zè			
ㄗㄞ	zāi	tzai	dzai	tsai
ㄗㄞˇ	zǎi			
ㄗㄞˋ	zài			
ㄗㄟ	zēi	tzei	dzei	tsei
ㄗㄟˊ	zéi			
ㄗㄠ	zāo	tzau	dzau	tsao
ㄗㄠˇ	zǎo			
ㄗㄠˊ	záo			
ㄗㄠˋ	zào			
ㄗㄡ	zōu	tzou	dzou	tsou
ㄗㄡˇ	zǒu			
ㄗㄡˋ	zòu			
ㄗㄢ	zān	tzan	dzan	tsan
ㄗㄢˇ	zǎn			
ㄗㄢˊ	zán			
ㄗㄢˋ	zàn			
ㄗㄣ	zēn	tzen	dzen	tsen
ㄗㄣˇ	zěn			
ㄗㄣˋ	zèn			
ㄗㄤ	zāng	tzang	dzang	tsang
ㄗㄤˇ	zǎng			
ㄗㄤˋ	zàng			
ㄗㄥ	zēng	tzeng	dzeng	tseng
ㄗㄥˇ	zěng			
ㄗㄥˋ	zèng			
ㄗㄨ	zū	tzu	dzu	tsu
ㄗㄨˇ	zǔ			
ㄗㄨˊ	zú			
ㄗㄨˋ	zù			
ㄗㄨㄛ	zuō	tzuo	dzwo	tso
ㄗㄨㄛˇ	zuǒ			
ㄗㄨㄛˊ	zuó			
ㄗㄨㄛˋ	zuò			
ㄗㄨㄟ	zuī	tzuei	dzwei	tsui
ㄗㄨㄟˇ	zuǐ			
ㄗㄨㄟˋ	zuì			
ㄗㄨㄢ	zuān	tzuan	dzwan	tsuan
ㄗㄨㄢˇ	zuǎn			
ㄗㄨㄢˋ	zuàn			
ㄗㄨㄣ	zūn	tzuen	dzwun	tsun
ㄗㄨㄣˇ	zǔn			
ㄗㄨㄣˋ	zùn			
ㄗㄨㄥ	zōng	tzung	dzwun	tsung
ㄗㄨㄥˇ	zǒng			
ㄗㄨㄥˊ	zóng			
ㄗㄨㄥˋ	zòng			
ㄘ	cī	tsz	tsz	tz'u
ㄘˇ	cǐ			
ㄘˊ	cí			
ㄘˋ	cì			
ㄘㄚ	cā	tsa	tsa	ts'a
ㄘㄚˇ	cǎ			
ㄘㄚˋ	cà			
ㄘㄜ	cē	tse	tse	ts'e
ㄘㄜˋ	cè			
ㄘㄞ	cāi	tsai	tsai	ts'ai
ㄘㄞˇ	cǎi			
ㄘㄞˊ	cái			
ㄘㄞˋ	cài			
ㄘㄠ	cāo	tsau	tsau	ts'ao
ㄘㄠˇ	cǎo			
ㄘㄠˊ	cáo			
ㄘㄠˋ	cào			
ㄘㄡ	cōu	tsou	tsou	ts'ou
ㄘㄡˇ	cǒu			
ㄘㄡˊ	cóu			
ㄘㄡˋ	còu			
ㄘㄢ	cān	tsan	tsan	ts'an
ㄘㄢˇ	cǎn			
ㄘㄢˊ	cán			
ㄘㄢˋ	càn			
ㄘㄣ	cēn	tsen	tsen	ts'en
ㄘㄣˊ	cén			
ㄘㄤ	cāng	tsang	tsang	ts'ang
ㄘㄤˇ	cǎng			
ㄘㄤˊ	cáng			
ㄘㄤˋ	càng			
ㄘㄥ	cēng	tseng	tseng	ts'eng
ㄘㄥˇ	cěng			
ㄘㄥˊ	céng			
ㄘㄥˋ	cèng			
ㄘㄨ	cū	tsu	tsu	ts'u
ㄘㄨˇ	cǔ			
ㄘㄨˊ	cú			
ㄘㄨˋ	cù			
ㄘㄨㄛ	cuō	tsuo	tswo	ts'o
ㄘㄨㄛˇ	cuǒ			
ㄘㄨㄛˊ	cuó			
ㄘㄨㄛˋ	cuò			
ㄘㄨㄟ	cuī	tsuei	tswei	ts'ui
ㄘㄨㄟˇ	cuǐ			
ㄘㄨㄟˊ	cuí			
ㄘㄨㄟˋ	cuì			
ㄘㄨㄢ	cuān	tsuan	tswan	ts'uan
ㄘㄨㄢˊ	cuán			
ㄘㄨㄢˋ	cuàn			
ㄘㄨㄣ	cūn	tsuen	tswun	ts'un
ㄘㄨㄣˇ	cǔn			
ㄘㄨㄣˊ	cún			
ㄘㄨㄣˋ	cùn			
ㄘㄨㄥ	cōng	tsung	tsung	ts'ung
ㄘㄨㄥˇ	cǒng			
ㄘㄨㄥˊ	cóng			
ㄘㄨㄥˋ	còng			
ㄙ	sī	sz	sz	ssu
ㄙˇ	sǐ			
ㄙˋ	sì			
ㄙㄚ	sā	sa	sa	sa
ㄙㄚˇ	sǎ			
ㄙㄚˋ	sà			
ㄙㄜ	sē	se	se	se
ㄙㄜˋ	sè			
ㄙㄞ	sāi	sai	sai	sai
ㄙㄞˇ	sǎi			
ㄙㄞˊ	sái			
ㄙㄞˋ	sài			
ㄙㄟ	sei	sei	sei	sei
ㄙㄠ	sāo	sau	sau	sao
ㄙㄠˇ	sǎo			
ㄙㄠˋ	sào			
ㄙㄡ	sōu	sou	sou	sou
ㄙㄡˇ	sǒu			
ㄙㄡˋ	sòu			
ㄙㄢ	sān	san	san	san
ㄙㄢˇ	sǎn			
ㄙㄢˋ	sàn			
ㄙㄣ	sēn	sen	sen	sen
ㄙㄣˇ	sěn			
ㄙㄤ	sāng	sang	sang	sang
ㄙㄤˇ	sǎng			
ㄙㄤˋ	sàng			
ㄙㄥ	sēng	seng	seng	seng
ㄙㄥˋ	sèng			
ㄙㄨ	sū	su	su	su
ㄙㄨˇ	sǔ			
ㄙㄨˊ	sú			
ㄙㄨˋ	sù			
ㄙㄨㄛ	suō	suo	swo	so
ㄙㄨㄛˇ	suǒ			
ㄙㄨㄛˊ	suó			
ㄙㄨㄛˋ	suò			
ㄙㄨㄟ	suī	suei	swei	sui
ㄙㄨㄟˇ	suǐ			
ㄙㄨㄟˊ	suí			
ㄙㄨㄟˋ	suì			
ㄙㄨㄢ	suān	suan	swan	suan
ㄙㄨㄢˇ	suǎn			
ㄙㄨㄢˋ	suàn			
ㄙㄨㄣ	sūn	suen	swun	sun
ㄙㄨㄣˇ	sǔn			
ㄙㄨㄣˋ	sùn			
ㄙㄨㄥ	sōng	sung	sung	sung
ㄙㄨㄥˇ	sǒng			
ㄙㄨㄥˊ	sóng			
ㄙㄨㄥˋ	sòng			
ㄚ	ā	a	a	a
ㄚˊ	á			
ㄚˋ	à			
ㄛ	ō	o	o	o
ㄛˇ	ǒ			
ㄛˊ	ó			
ㄜ	ē	e	e	e
ㄜˇ	ě			
ㄜˊ	é			
ㄜˋ	è			
ㄝ	ê¯	eh	eh	eh
ㄝˇ	êˇ			
ㄝˊ	ế			
ㄝˋ	ề			
ㄞ	āi	ai	ai	ai
ㄞˇ	ǎi			
ㄞˊ	ái			
ㄞˋ	ài			
ㄟ	ēi	ei	ei	ei
ㄟˋ	èi			
ㄠ	āo	au	au	ao
ㄠˇ	ǎo			
ㄠˊ	áo			
ㄠˋ	ào			
ㄡ	ōu	ou	ou	ou
ㄡˇ	ǒu			
ㄡˊ	óu			
ㄡˋ	òu			
ㄢ	ān	an	an	an
ㄢˇ	ǎn			
ㄢˊ	án			
ㄢˋ	àn			
ㄣ	ēn	en	en	en
ㄣˇ	ěn			
ㄣˊ	én			
ㄣˋ	èn			
ㄤ	āng	ang	ang	ang
ㄤˇ	ǎng			
ㄤˊ	áng			
ㄤˋ	àng			
ㄥ	ēng	eng	eng	eng
ㄥˋ	èng			
ㄦ	ēr	er	er	erh
ㄦˇ	ěr			
ㄦˊ	ér			
ㄦˋ	èr			
ㄧ	yī	yi	yi	i
ㄧˇ	yǐ			
ㄧˊ	yí			
ㄧˋ	yì			
ㄧㄚ	yā	ya	ya	ya
ㄧㄚˇ	yǎ			
ㄧㄚˊ	yá			
ㄧㄚˋ	yà			
ㄧㄛ	yō	yo	yo	yo
ㄧㄝ	yē	ye	ye	yeh
ㄧㄝˇ	yě			
ㄧㄝˊ	yé			
ㄧㄝˋ	yè			
ㄧㄞ	yāi	yai	yai	yai
ㄧㄞˊ	yái			
ㄧㄠ	yāo	yau	yau	yao
ㄧㄠˇ	yǎo			
ㄧㄠˊ	yáo			
ㄧㄠˋ	yào			
ㄧㄡ	yōu	you	you	yu
ㄧㄡˇ	yǒu			
ㄧㄡˊ	yóu			
ㄧㄡˋ	yòu			
ㄧㄢ	yān	yan	yen	yan
ㄧㄢˇ	yǎn			
ㄧㄢˊ	yán			
ㄧㄢˋ	yàn			
ㄧㄣ	yīn	yin	yin	yin
ㄧㄣˇ	yǐn			
ㄧㄣˊ	yín			
ㄧㄣˋ	yìn			
ㄧㄤ	yāng	yang	yang	yang
ㄧㄤˇ	yǎng			
ㄧㄤˊ	yáng			
ㄧㄤˋ	yàng			
ㄧㄥ	yīng	ying	ying	ying
ㄧㄥˇ	yǐng			
ㄧㄥˊ	yíng			
ㄧㄥˋ	yìng			
ㄨ	wū	wu	wu	wu
ㄨˇ	wǔ			
ㄨˊ	wú			
ㄨˋ	wù			
ㄨㄚ	wā	wa	wa	wa
ㄨㄚˇ	wǎ			
ㄨㄚˊ	wá			
ㄨㄚˋ	wà			
ㄨㄛ	wō	wo	wo	wo
ㄨㄛˇ	wǒ			
ㄨㄛˋ	wò			
ㄨㄞ	wāi	wai	wai	wai
ㄨㄞˇ	wǎi			
ㄨㄞˋ	wài			
ㄨㄟ	wēi	wei	wei	wei
ㄨㄟˇ	wěi			
ㄨㄟˊ	wéi			
ㄨㄟˋ	wèi			
ㄨㄢ	wān	wan	wan	wan
ㄨㄢˇ	wǎn			
ㄨㄢˊ	wán			
ㄨㄢˋ	wàn			
ㄨㄣ	wēn	wen	wen	wen
ㄨㄣˇ	wěn			
ㄨㄣˊ	wén			
ㄨㄣˋ	wèn			
ㄨㄤ	wāng	wang	wang	wang
ㄨㄤˇ	wǎng			
ㄨㄤˊ	wáng			
ㄨㄤˋ	wàng			
ㄨㄥ	wēng	wng	weng	weng
ㄨㄥˇ	wěng			
ㄨㄥˋ	wèng			
ㄩ	yū	yu	yu	yv
ㄩˇ	yǔ			
ㄩˊ	yú			
ㄩˋ	yù			
ㄩㄝ	yuē	yue	ywe	yueh
ㄩㄝˇ	yuě			
ㄩㄝˋ	yuè			
ㄩㄢ	yuān	yuan	ywan	yuan
ㄩㄢˇ	yuǎn			
ㄩㄢˊ	yuán			
ㄩㄢˋ	yuàn			
ㄩㄣ	yūn	yun	yun	yun
ㄩㄣˇ	yǔn			
ㄩㄣˊ	yún			
ㄩㄣˋ	yùn			
ㄩㄥ	yōng	yung	yung	yung
ㄩㄥˇ	yǒng			
ㄩㄥˊ	yóng			
ㄩㄥˋ	yòng			
